<svg width="141" height="141" viewBox="0 0 141 141" fill="none" xmlns="http://www.w3.org/2000/svg">
<g clip-path="url(#clip0_3511_56)">
<path d="M126.197 72.6222H140.368C139.916 90.5621 132.68 106.768 121.222 118.904L111.197 108.879C120.092 99.3059 125.745 86.6424 126.197 72.6222Z" fill="#5BD768"/>
<path d="M14.4882 72.6222C14.9405 86.6424 20.5938 99.3059 29.4884 108.879L19.4632 118.904C8.00577 106.768 0.769526 90.5621 0.317261 72.6222H14.4882Z" fill="#5BD768"/>
<path d="M68.4585 126.593V140.764C50.5186 140.312 34.3124 133.075 22.1766 121.618L32.2019 111.593C41.7748 120.487 54.4382 126.141 68.4585 126.593Z" fill="#5BD768"/>
<path d="M108.484 111.519L118.509 121.544C106.373 133.077 90.1673 140.238 72.2274 140.69V126.519C86.2476 126.067 98.9111 120.414 108.484 111.519Z" fill="#5BD768"/>
<path d="M32.2019 29.9598L22.1766 19.9345C34.3124 8.40177 50.5186 1.16552 68.4585 0.713257V14.8842C54.4382 15.3365 41.7748 20.9898 32.2019 29.8844V29.9598Z" fill="#9E9C83"/>
<path d="M14.4882 68.8541H0.317261C0.769526 50.9142 8.00577 34.7081 19.4632 22.5723L29.4884 32.5975C20.5938 42.1704 14.9405 54.8339 14.4882 68.8541Z" fill="#5BD768"/>
<path d="M72.2277 14.8842V0.713257C90.1676 1.16552 106.374 8.40177 118.51 19.8592L108.484 29.8844C98.9114 20.9144 86.248 15.3365 72.2277 14.8842Z" fill="#5BD768"/>
<path d="M111.123 32.5975L121.148 22.5723C132.681 34.7081 139.842 50.9142 140.294 68.8541H126.123C125.671 54.8339 120.017 42.1704 111.123 32.5975Z" fill="#5BD768"/>
</g>
<defs>
<clipPath id="clip0_3511_56">
<rect width="141" height="141" fill="white"/>
</clipPath>
</defs>
</svg>
