<svg width="553" height="113" viewBox="0 0 553 113" fill="none" xmlns="http://www.w3.org/2000/svg">
<path d="M499.941 112.506H1V4.50586H553L499.941 112.506Z" fill="url(#paint0_linear_545_121)"/>
<path d="M488.191 100.506H1V0.505859H540L488.191 100.506Z" fill="#041B39" stroke="#1B9AE1"/>
<defs>
<linearGradient id="paint0_linear_545_121" x1="0.999995" y1="28" x2="500" y2="113" gradientUnits="userSpaceOnUse">
<stop stop-color="#163E8C"/>
<stop offset="0.52123" stop-color="#529FFF"/>
<stop offset="1" stop-color="#00D3F7"/>
</linearGradient>
</defs>
</svg>
