<svg width="86" height="80" viewBox="0 0 86 80" fill="none" xmlns="http://www.w3.org/2000/svg">
<g id="Frame" clip-path="url(#clip0_290_682)">
<path id="Vector" d="M63.6731 80C75.9728 80 86 69.8756 86 57.4724C86 53.6626 85.056 50.0714 83.3009 46.7554L62.6313 11.8106C58.8204 4.76938 51.4434 0 42.9965 0C34.5496 0 27.1796 4.76938 23.3687 11.8035L2.69908 46.7484C0.943979 50.0644 0 53.6555 0 57.4654C0 69.8686 10.0272 79.9929 22.3269 79.9929H63.6662L63.6731 80Z" fill="#291F6C"/>
<path id="Vector_2" d="M47.199 49.3024C47.7514 49.2248 47.9332 48.9567 47.9122 48.4769L47.3738 38.5148C47.3528 38.1339 47.6185 37.9645 48.0101 37.9645H52.6391C52.5342 40.6244 48.8771 40.3139 48.996 41.7956L49.7931 51.5178C49.8141 51.7576 49.6044 51.9622 49.3736 51.9622H46.4927C45.7725 51.9622 45.353 52.3291 45.353 52.9853V54.5939C45.353 55.2712 45.8354 55.6028 46.4717 55.6028H53.5271C54.4711 55.6028 55.2263 55.6028 55.2263 54.1141C55.2263 53.3945 55.2542 52.6819 55.2263 51.9622C55.1144 48.9637 59.1141 48.5828 58.9183 40.7232C59.3798 37.3931 62.5264 35.7421 62.3306 31.8264C62.1768 28.7362 59.6665 26.3303 55.3102 26.3303H52.2755C50.891 26.3303 49.8771 24.4607 43.0035 24.4607C36.1299 24.4607 35.116 26.3303 33.7315 26.3303H30.6968C26.3405 26.3303 23.8302 28.7362 23.6764 31.8264C23.4806 35.7421 26.6272 37.386 27.0887 40.7232C26.8929 48.5828 30.8926 48.9567 30.7807 51.9622C30.7527 52.6819 30.7807 53.3945 30.7807 54.1141C30.7807 55.6028 31.5359 55.5957 32.4799 55.6028H39.5352C40.1716 55.6028 40.654 55.2782 40.654 54.6009V52.9923C40.654 52.3432 40.2345 51.9693 39.5143 51.9693H36.6264C36.3886 51.9693 36.1859 51.7647 36.2068 51.5248L37.004 41.8026C37.1229 40.321 33.4658 40.6314 33.3609 37.9716H37.9899C38.3815 37.9716 38.6472 38.1409 38.6262 38.529L38.0878 48.491C38.0598 48.9708 38.2416 49.2389 38.801 49.3165H47.199V49.3024ZM46.3389 61.635C46.9682 61.635 47.8143 61.5292 48.2548 60.9789L49.1708 59.3632C49.4575 58.8411 49.1219 58.2273 48.2548 58.2273H37.7452C36.8781 58.2273 36.5425 58.8411 36.8292 59.3632L37.7452 60.9789C38.1857 61.5292 39.0318 61.635 39.6611 61.635H46.3319H46.3389Z" fill="#E9CA00"/>
</g>
<defs>
<clipPath id="clip0_290_682">
<rect width="86" height="80" fill="white"/>
</clipPath>
</defs>
</svg>
